{
  "dev": {
    "awscloudformation": {
      "AuthRoleName": "amplify-smsweb-dev-50447-authRole",
      "UnauthRoleArn": "arn:aws:iam::444032043346:role/amplify-smsweb-dev-50447-unauthRole",
      "AuthRoleArn": "arn:aws:iam::444032043346:role/amplify-smsweb-dev-50447-authRole",
      "Region": "us-east-1",
      "DeploymentBucketName": "amplify-smsweb-dev-50447-deployment",
      "UnauthRoleName": "amplify-smsweb-dev-50447-unauthRole",
      "StackName": "amplify-smsweb-dev-50447",
      "StackId": "arn:aws:cloudformation:us-east-1:444032043346:stack/amplify-smsweb-dev-50447/2c839d70-7a41-11ee-aa0c-0ae04d632633",
      "AmplifyAppId": "dz5inqvvf9k67"
    },
    "categories": {
      "auth": {
        "smsweb": {}
      },
      "api": {
        "smsweb": {}
      }
    }
  }
}